iiitb_brg_out.vcd
$date
	Wed Aug 17 13:45:10 2022
$end
$version
	Icarus Verilog
$end
$timescale
	1ps
$end
$scope module iiitb_brg_tb $end
$var wire 1 ! clkout $end
$var reg 1 " clk $end
$var reg 1 # reset $end
$var reg 2 $ sel [1:0] $end
$scope module uut $end
$var wire 1 % _001_ $end
$var wire 1 & _002_ $end
$var wire 1 ' _003_ $end
$var wire 1 ( _004_ $end
$var wire 1 ) _005_ $end
$var wire 1 * _006_ $end
$var wire 1 + _057_ $end
$var wire 1 , _062_ $end
$var wire 1 - _072_ $end
$var wire 1 . _097_ $end
$var wire 1 / _141_ $end
$var wire 1 " clk $end
$var wire 1 # reset $end
$var wire 2 0 sel [1:0] $end
$var wire 3 1 _149_ [2:0] $end
$var wire 3 2 _148_ [2:0] $end
$var wire 2 3 _147_ [1:0] $end
$var wire 2 4 _146_ [1:0] $end
$var wire 4 5 _145_ [3:0] $end
$var wire 4 6 _144_ [3:0] $end
$var wire 1 7 _143_ $end
$var wire 1 8 _142_ $end
$var wire 1 9 _140_ $end
$var wire 1 : _139_ $end
$var wire 1 ; _138_ $end
$var wire 1 < _137_ $end
$var wire 1 = _136_ $end
$var wire 1 > _135_ $end
$var wire 1 ? _134_ $end
$var wire 1 @ _133_ $end
$var wire 1 A _132_ $end
$var wire 1 B _131_ $end
$var wire 1 C _130_ $end
$var wire 1 D _129_ $end
$var wire 1 E _128_ $end
$var wire 1 F _127_ $end
$var wire 1 G _126_ $end
$var wire 1 H _125_ $end
$var wire 1 I _124_ $end
$var wire 1 J _123_ $end
$var wire 1 K _122_ $end
$var wire 1 L _121_ $end
$var wire 1 M _120_ $end
$var wire 1 N _119_ $end
$var wire 1 O _118_ $end
$var wire 1 P _117_ $end
$var wire 1 Q _116_ $end
$var wire 1 R _115_ $end
$var wire 1 S _114_ $end
$var wire 1 T _113_ $end
$var wire 1 U _112_ $end
$var wire 1 V _111_ $end
$var wire 1 W _110_ $end
$var wire 1 X _109_ $end
$var wire 1 Y _108_ $end
$var wire 1 Z _107_ $end
$var wire 1 [ _106_ $end
$var wire 1 \ _105_ $end
$var wire 1 ] _104_ $end
$var wire 1 ^ _103_ $end
$var wire 1 _ _102_ $end
$var wire 1 ` _101_ $end
$var wire 1 a _100_ $end
$var wire 1 b _099_ $end
$var wire 1 c _098_ $end
$var wire 1 d _096_ $end
$var wire 1 e _095_ $end
$var wire 1 f _094_ $end
$var wire 1 g _093_ $end
$var wire 1 h _092_ $end
$var wire 1 i _091_ $end
$var wire 1 j _090_ $end
$var wire 1 k _089_ $end
$var wire 1 l _088_ $end
$var wire 1 m _087_ $end
$var wire 1 n _086_ $end
$var wire 1 o _085_ $end
$var wire 1 p _084_ $end
$var wire 1 q _083_ $end
$var wire 1 r _082_ $end
$var wire 1 s _081_ $end
$var wire 1 t _080_ $end
$var wire 1 u _079_ $end
$var wire 1 v _078_ $end
$var wire 1 w _077_ $end
$var wire 1 x _076_ $end
$var wire 1 y _075_ $end
$var wire 1 z _074_ $end
$var wire 1 { _073_ $end
$var wire 6 | _000_ [5:0] $end
$var reg 1 ! clkout $end
$var reg 6 } cnt1 [5:0] $end
$var reg 2 ~ cnt2 [1:0] $end
$var reg 3 !" cnt3 [2:0] $end
$var reg 4 "" cnt4 [3:0] $end
$scope module _150_ $end
$var wire 1 ] A $end
$var wire 1 #" VGND $end
$var wire 1 $" VNB $end
$var wire 1 %" VPB $end
$var wire 1 &" VPWR $end
$var wire 1 h Y $end
$scope module base $end
$var wire 1 ] A $end
$var wire 1 h Y $end
$var wire 1 '" not0_out_Y $end
$upscope $end
$upscope $end
$scope module _151_ $end
$var wire 1 X A $end
$var wire 1 (" VGND $end
$var wire 1 )" VNB $end
$var wire 1 *" VPB $end
$var wire 1 +" VPWR $end
$var wire 1 l Y $end
$scope module base $end
$var wire 1 X A $end
$var wire 1 l Y $end
$var wire 1 ," not0_out_Y $end
$upscope $end
$upscope $end
$scope module _152_ $end
$var wire 1 [ A $end
$var wire 1 -" VGND $end
$var wire 1 ." VNB $end
$var wire 1 /" VPB $end
$var wire 1 0" VPWR $end
$var wire 1 f Y $end
$scope module base $end
$var wire 1 [ A $end
$var wire 1 f Y $end
$var wire 1 1" not0_out_Y $end
$upscope $end
$upscope $end
$scope module _153_ $end
$var wire 1 . A $end
$var wire 1 2" VGND $end
$var wire 1 3" VNB $end
$var wire 1 4" VPB $end
$var wire 1 5" VPWR $end
$var wire 1 m Y $end
$scope module base $end
$var wire 1 . A $end
$var wire 1 m Y $end
$var wire 1 6" not0_out_Y $end
$upscope $end
$upscope $end
$scope module _154_ $end
$var wire 1 Z A $end
$var wire 1 [ B_N $end
$var wire 1 7" VGND $end
$var wire 1 8" VNB $end
$var wire 1 9" VPB $end
$var wire 1 :" VPWR $end
$var wire 1 T Y $end
$scope module base $end
$var wire 1 Z A $end
$var wire 1 [ B_N $end
$var wire 1 T Y $end
$var wire 1 ;" and0_out_Y $end
$var wire 1 <" not0_out $end
$upscope $end
$upscope $end
$scope module _155_ $end
$var wire 1 Y A1 $end
$var wire 1 T A2 $end
$var wire 1 / B1 $end
$var wire 1 =" VGND $end
$var wire 1 >" VNB $end
$var wire 1 ?" VPB $end
$var wire 1 @" VPWR $end
$var wire 1 o Y $end
$scope module base $end
$var wire 1 Y A1 $end
$var wire 1 T A2 $end
$var wire 1 / B1 $end
$var wire 1 o Y $end
$var wire 1 A" and0_out $end
$var wire 1 B" nor0_out_Y $end
$upscope $end
$upscope $end
$scope module _156_ $end
$var wire 1 ] A $end
$var wire 1 \ B_N $end
$var wire 1 C" VGND $end
$var wire 1 D" VNB $end
$var wire 1 E" VPB $end
$var wire 1 F" VPWR $end
$var wire 1 S Y $end
$scope module base $end
$var wire 1 ] A $end
$var wire 1 \ B_N $end
$var wire 1 S Y $end
$var wire 1 G" and0_out_Y $end
$var wire 1 H" not0_out $end
$upscope $end
$upscope $end
$scope module _157_ $end
$var wire 1 / A $end
$var wire 1 S B $end
$var wire 1 I" VGND $end
$var wire 1 J" VNB $end
$var wire 1 K" VPB $end
$var wire 1 L" VPWR $end
$var wire 1 n Y $end
$scope module base $end
$var wire 1 / A $end
$var wire 1 S B $end
$var wire 1 n Y $end
$var wire 1 M" nor0_out_Y $end
$upscope $end
$upscope $end
$scope module _158_ $end
$var wire 1 a A $end
$var wire 1 _ B $end
$var wire 1 N" VGND $end
$var wire 1 O" VNB $end
$var wire 1 P" VPB $end
$var wire 1 Q" VPWR $end
$var wire 1 R Y $end
$scope module base $end
$var wire 1 a A $end
$var wire 1 _ B $end
$var wire 1 R Y $end
$var wire 1 R" nor0_out_Y $end
$upscope $end
$upscope $end
$scope module _159_ $end
$var wire 1 b A $end
$var wire 1 ` B $end
$var wire 1 c C_N $end
$var wire 1 S" VGND $end
$var wire 1 T" VNB $end
$var wire 1 U" VPB $end
$var wire 1 V" VPWR $end
$var wire 1 Q Y $end
$scope module base $end
$var wire 1 b A $end
$var wire 1 ` B $end
$var wire 1 c C_N $end
$var wire 1 Q Y $end
$var wire 1 W" and0_out_Y $end
$var wire 1 X" nor0_out $end
$upscope $end
$upscope $end
$scope module _160_ $end
$var wire 1 ^ A $end
$var wire 1 R B $end
$var wire 1 Q C $end
$var wire 1 Y" VGND $end
$var wire 1 Z" VNB $end
$var wire 1 [" VPB $end
$var wire 1 \" VPWR $end
$var wire 1 P Y $end
$scope module base $end
$var wire 1 ^ A $end
$var wire 1 R B $end
$var wire 1 Q C $end
$var wire 1 P Y $end
$var wire 1 ]" nand0_out_Y $end
$upscope $end
$upscope $end
$scope module _161_ $end
$var wire 1 ^ A1 $end
$var wire 1 R A2 $end
$var wire 1 Q A3 $end
$var wire 1 / B1 $end
$var wire 1 ^" VGND $end
$var wire 1 _" VNB $end
$var wire 1 `" VPB $end
$var wire 1 a" VPWR $end
$var wire 1 O Y $end
$scope module base $end
$var wire 1 ^ A1 $end
$var wire 1 R A2 $end
$var wire 1 Q A3 $end
$var wire 1 / B1 $end
$var wire 1 O Y $end
$var wire 1 b" and0_out $end
$var wire 1 c" nor0_out_Y $end
$upscope $end
$upscope $end
$scope module _162_ $end
$var wire 1 X A $end
$var wire 1 W B $end
$var wire 1 d" VGND $end
$var wire 1 e" VNB $end
$var wire 1 f" VPB $end
$var wire 1 g" VPWR $end
$var wire 1 N Y $end
$scope module base $end
$var wire 1 X A $end
$var wire 1 W B $end
$var wire 1 N Y $end
$var wire 1 h" nand0_out_Y $end
$upscope $end
$upscope $end
$scope module _163_ $end
$var wire 1 V A_N $end
$var wire 1 W B $end
$var wire 1 X C $end
$var wire 1 i" VGND $end
$var wire 1 j" VNB $end
$var wire 1 k" VPB $end
$var wire 1 l" VPWR $end
$var wire 1 M X $end
$scope module base $end
$var wire 1 V A_N $end
$var wire 1 W B $end
$var wire 1 X C $end
$var wire 1 M X $end
$var wire 1 m" and0_out_X $end
$var wire 1 n" not0_out $end
$upscope $end
$upscope $end
$scope module _164_ $end
$var wire 1 U A1 $end
$var wire 1 M A2 $end
$var wire 1 / B1 $end
$var wire 1 o" VGND $end
$var wire 1 p" VNB $end
$var wire 1 q" VPB $end
$var wire 1 r" VPWR $end
$var wire 1 p X $end
$scope module base $end
$var wire 1 U A1 $end
$var wire 1 M A2 $end
$var wire 1 / B1 $end
$var wire 1 p X $end
$var wire 1 s" and0_out $end
$var wire 1 t" or0_out_X $end
$upscope $end
$upscope $end
$scope module _165_ $end
$var wire 1 8 A $end
$var wire 1 7 B $end
$var wire 1 u" VGND $end
$var wire 1 v" VNB $end
$var wire 1 w" VPB $end
$var wire 1 x" VPWR $end
$var wire 1 L Y $end
$scope module base $end
$var wire 1 8 A $end
$var wire 1 7 B $end
$var wire 1 L Y $end
$var wire 1 y" nand0_out_Y $end
$upscope $end
$upscope $end
$scope module _166_ $end
$var wire 1 U A1 $end
$var wire 1 M A2 $end
$var wire 1 L B1 $end
$var wire 1 / C1 $end
$var wire 1 z" VGND $end
$var wire 1 {" VNB $end
$var wire 1 |" VPB $end
$var wire 1 }" VPWR $end
$var wire 1 K Y $end
$scope module base $end
$var wire 1 U A1 $end
$var wire 1 M A2 $end
$var wire 1 L B1 $end
$var wire 1 / C1 $end
$var wire 1 K Y $end
$var wire 1 ~" and0_out $end
$var wire 1 !# nor0_out_Y $end
$upscope $end
$upscope $end
$scope module _167_ $end
$var wire 1 7 A_N $end
$var wire 1 8 B $end
$var wire 1 "# VGND $end
$var wire 1 ## VNB $end
$var wire 1 $# VPB $end
$var wire 1 %# VPWR $end
$var wire 1 J Y $end
$scope module base $end
$var wire 1 7 A_N $end
$var wire 1 8 B $end
$var wire 1 J Y $end
$var wire 1 &# not0_out $end
$var wire 1 '# or0_out_Y $end
$upscope $end
$upscope $end
$scope module _168_ $end
$var wire 1 / A $end
$var wire 1 S B $end
$var wire 1 J C $end
$var wire 1 (# VGND $end
$var wire 1 )# VNB $end
$var wire 1 *# VPB $end
$var wire 1 +# VPWR $end
$var wire 1 I Y $end
$scope module base $end
$var wire 1 / A $end
$var wire 1 S B $end
$var wire 1 J C $end
$var wire 1 I Y $end
$var wire 1 ,# nor0_out_Y $end
$upscope $end
$upscope $end
$scope module _169_ $end
$var wire 1 8 A_N $end
$var wire 1 7 B $end
$var wire 1 -# VGND $end
$var wire 1 .# VNB $end
$var wire 1 /# VPB $end
$var wire 1 0# VPWR $end
$var wire 1 H Y $end
$scope module base $end
$var wire 1 8 A_N $end
$var wire 1 7 B $end
$var wire 1 H Y $end
$var wire 1 1# not0_out $end
$var wire 1 2# or0_out_Y $end
$upscope $end
$upscope $end
$scope module _170_ $end
$var wire 1 Y A1 $end
$var wire 1 T A2 $end
$var wire 1 H B1 $end
$var wire 1 / C1 $end
$var wire 1 3# VGND $end
$var wire 1 4# VNB $end
$var wire 1 5# VPB $end
$var wire 1 6# VPWR $end
$var wire 1 G Y $end
$scope module base $end
$var wire 1 Y A1 $end
$var wire 1 T A2 $end
$var wire 1 H B1 $end
$var wire 1 / C1 $end
$var wire 1 G Y $end
$var wire 1 7# and0_out $end
$var wire 1 8# nor0_out_Y $end
$upscope $end
$upscope $end
$scope module _171_ $end
$var wire 1 K A $end
$var wire 1 I B $end
$var wire 1 G C $end
$var wire 1 9# VGND $end
$var wire 1 :# VNB $end
$var wire 1 ;# VPB $end
$var wire 1 <# VPWR $end
$var wire 1 F Y $end
$scope module base $end
$var wire 1 K A $end
$var wire 1 I B $end
$var wire 1 G C $end
$var wire 1 F Y $end
$var wire 1 =# nor0_out_Y $end
$upscope $end
$upscope $end
$scope module _172_ $end
$var wire 1 P A1 $end
$var wire 1 F A2 $end
$var wire 1 O B1_N $end
$var wire 1 ># VGND $end
$var wire 1 ?# VNB $end
$var wire 1 @# VPB $end
$var wire 1 A# VPWR $end
$var wire 1 q X $end
$scope module base $end
$var wire 1 P A1 $end
$var wire 1 F A2 $end
$var wire 1 O B1_N $end
$var wire 1 q X $end
$var wire 1 B# nor0_out $end
$var wire 1 C# nor1_out_X $end
$upscope $end
$upscope $end
$scope module _173_ $end
$var wire 1 O A $end
$var wire 1 L B $end
$var wire 1 D# VGND $end
$var wire 1 E# VNB $end
$var wire 1 F# VPB $end
$var wire 1 G# VPWR $end
$var wire 1 u Y $end
$scope module base $end
$var wire 1 O A $end
$var wire 1 L B $end
$var wire 1 u Y $end
$var wire 1 H# nor0_out_Y $end
$upscope $end
$upscope $end
$scope module _174_ $end
$var wire 1 O A $end
$var wire 1 H B $end
$var wire 1 I# VGND $end
$var wire 1 J# VNB $end
$var wire 1 K# VPB $end
$var wire 1 L# VPWR $end
$var wire 1 t Y $end
$scope module base $end
$var wire 1 O A $end
$var wire 1 H B $end
$var wire 1 t Y $end
$var wire 1 M# nor0_out_Y $end
$upscope $end
$upscope $end
$scope module _175_ $end
$var wire 1 O A $end
$var wire 1 J B $end
$var wire 1 N# VGND $end
$var wire 1 O# VNB $end
$var wire 1 P# VPB $end
$var wire 1 Q# VPWR $end
$var wire 1 s Y $end
$scope module base $end
$var wire 1 O A $end
$var wire 1 J B $end
$var wire 1 s Y $end
$var wire 1 R# nor0_out_Y $end
$upscope $end
$upscope $end
$scope module _176_ $end
$var wire 1 8 A $end
$var wire 1 7 B $end
$var wire 1 S# VGND $end
$var wire 1 T# VNB $end
$var wire 1 U# VPB $end
$var wire 1 V# VPWR $end
$var wire 1 E Y $end
$scope module base $end
$var wire 1 8 A $end
$var wire 1 7 B $end
$var wire 1 E Y $end
$var wire 1 W# nor0_out_Y $end
$upscope $end
$upscope $end
$scope module _177_ $end
$var wire 1 8 A1 $end
$var wire 1 7 A2 $end
$var wire 1 / B1 $end
$var wire 1 X# VGND $end
$var wire 1 Y# VNB $end
$var wire 1 Z# VPB $end
$var wire 1 [# VPWR $end
$var wire 1 r Y $end
$scope module base $end
$var wire 1 8 A1 $end
$var wire 1 7 A2 $end
$var wire 1 / B1 $end
$var wire 1 r Y $end
$var wire 1 \# nand0_out_Y $end
$var wire 1 ]# or0_out $end
$upscope $end
$upscope $end
$scope module _178_ $end
$var wire 1 / A $end
$var wire 1 E B $end
$var wire 1 ^# VGND $end
$var wire 1 _# VNB $end
$var wire 1 `# VPB $end
$var wire 1 a# VPWR $end
$var wire 1 D X $end
$scope module base $end
$var wire 1 / A $end
$var wire 1 E B $end
$var wire 1 D X $end
$var wire 1 b# and0_out_X $end
$upscope $end
$upscope $end
$scope module _179_ $end
$var wire 1 / A $end
$var wire 1 E B $end
$var wire 1 c# VGND $end
$var wire 1 d# VNB $end
$var wire 1 e# VPB $end
$var wire 1 f# VPWR $end
$var wire 1 C Y $end
$scope module base $end
$var wire 1 / A $end
$var wire 1 E B $end
$var wire 1 C Y $end
$var wire 1 g# nand0_out_Y $end
$upscope $end
$upscope $end
$scope module _180_ $end
$var wire 1 c A $end
$var wire 1 D B $end
$var wire 1 h# VGND $end
$var wire 1 i# VNB $end
$var wire 1 j# VPB $end
$var wire 1 k# VPWR $end
$var wire 1 { Y $end
$scope module base $end
$var wire 1 c A $end
$var wire 1 D B $end
$var wire 1 { Y $end
$var wire 1 l# nor0_out_Y $end
$upscope $end
$upscope $end
$scope module _181_ $end
$var wire 1 P A $end
$var wire 1 C B $end
$var wire 1 m# VGND $end
$var wire 1 n# VNB $end
$var wire 1 o# VPB $end
$var wire 1 p# VPWR $end
$var wire 1 B Y $end
$scope module base $end
$var wire 1 P A $end
$var wire 1 C B $end
$var wire 1 B Y $end
$var wire 1 q# nand0_out_Y $end
$upscope $end
$upscope $end
$scope module _182_ $end
$var wire 1 c A $end
$var wire 1 b B $end
$var wire 1 r# VGND $end
$var wire 1 s# VNB $end
$var wire 1 t# VPB $end
$var wire 1 u# VPWR $end
$var wire 1 A Y $end
$scope module base $end
$var wire 1 c A $end
$var wire 1 b B $end
$var wire 1 A Y $end
$var wire 1 v# xnor0_out_Y $end
$upscope $end
$upscope $end
$scope module _183_ $end
$var wire 1 B A $end
$var wire 1 A B $end
$var wire 1 w# VGND $end
$var wire 1 x# VNB $end
$var wire 1 y# VPB $end
$var wire 1 z# VPWR $end
$var wire 1 z Y $end
$scope module base $end
$var wire 1 B A $end
$var wire 1 A B $end
$var wire 1 z Y $end
$var wire 1 {# nor0_out_Y $end
$upscope $end
$upscope $end
$scope module _184_ $end
$var wire 1 c A $end
$var wire 1 b B $end
$var wire 1 a C $end
$var wire 1 |# VGND $end
$var wire 1 }# VNB $end
$var wire 1 ~# VPB $end
$var wire 1 !$ VPWR $end
$var wire 1 @ X $end
$scope module base $end
$var wire 1 c A $end
$var wire 1 b B $end
$var wire 1 a C $end
$var wire 1 @ X $end
$var wire 1 "$ and0_out_X $end
$upscope $end
$upscope $end
$scope module _185_ $end
$var wire 1 c A1 $end
$var wire 1 b A2 $end
$var wire 1 a B1 $end
$var wire 1 #$ VGND $end
$var wire 1 $$ VNB $end
$var wire 1 %$ VPB $end
$var wire 1 &$ VPWR $end
$var wire 1 ? Y $end
$scope module base $end
$var wire 1 c A1 $end
$var wire 1 b A2 $end
$var wire 1 a B1 $end
$var wire 1 ? Y $end
$var wire 1 '$ and0_out $end
$var wire 1 ($ nor0_out_Y $end
$upscope $end
$upscope $end
$scope module _186_ $end
$var wire 1 D A $end
$var wire 1 @ B $end
$var wire 1 ? C $end
$var wire 1 )$ VGND $end
$var wire 1 *$ VNB $end
$var wire 1 +$ VPB $end
$var wire 1 ,$ VPWR $end
$var wire 1 y Y $end
$scope module base $end
$var wire 1 D A $end
$var wire 1 @ B $end
$var wire 1 ? C $end
$var wire 1 y Y $end
$var wire 1 -$ nor0_out_Y $end
$upscope $end
$upscope $end
$scope module _187_ $end
$var wire 1 ` A $end
$var wire 1 @ B $end
$var wire 1 .$ VGND $end
$var wire 1 /$ VNB $end
$var wire 1 0$ VPB $end
$var wire 1 1$ VPWR $end
$var wire 1 > X $end
$scope module base $end
$var wire 1 ` A $end
$var wire 1 @ B $end
$var wire 1 > X $end
$var wire 1 2$ and0_out_X $end
$upscope $end
$upscope $end
$scope module _188_ $end
$var wire 1 ` A $end
$var wire 1 @ B $end
$var wire 1 3$ VGND $end
$var wire 1 4$ VNB $end
$var wire 1 5$ VPB $end
$var wire 1 6$ VPWR $end
$var wire 1 = Y $end
$scope module base $end
$var wire 1 ` A $end
$var wire 1 @ B $end
$var wire 1 = Y $end
$var wire 1 7$ nor0_out_Y $end
$upscope $end
$upscope $end
$scope module _189_ $end
$var wire 1 D A $end
$var wire 1 > B $end
$var wire 1 = C $end
$var wire 1 8$ VGND $end
$var wire 1 9$ VNB $end
$var wire 1 :$ VPB $end
$var wire 1 ;$ VPWR $end
$var wire 1 x Y $end
$scope module base $end
$var wire 1 D A $end
$var wire 1 > B $end
$var wire 1 = C $end
$var wire 1 x Y $end
$var wire 1 <$ nor0_out_Y $end
$upscope $end
$upscope $end
$scope module _190_ $end
$var wire 1 _ A1 $end
$var wire 1 > A2 $end
$var wire 1 C B1 $end
$var wire 1 =$ VGND $end
$var wire 1 >$ VNB $end
$var wire 1 ?$ VPB $end
$var wire 1 @$ VPWR $end
$var wire 1 < Y $end
$scope module base $end
$var wire 1 _ A1 $end
$var wire 1 > A2 $end
$var wire 1 C B1 $end
$var wire 1 < Y $end
$var wire 1 A$ nand0_out_Y $end
$var wire 1 B$ or0_out $end
$upscope $end
$upscope $end
$scope module _191_ $end
$var wire 1 _ A1 $end
$var wire 1 > A2 $end
$var wire 1 < B1 $end
$var wire 1 C$ VGND $end
$var wire 1 D$ VNB $end
$var wire 1 E$ VPB $end
$var wire 1 F$ VPWR $end
$var wire 1 w Y $end
$scope module base $end
$var wire 1 _ A1 $end
$var wire 1 > A2 $end
$var wire 1 < B1 $end
$var wire 1 w Y $end
$var wire 1 G$ and0_out $end
$var wire 1 H$ nor0_out_Y $end
$upscope $end
$upscope $end
$scope module _192_ $end
$var wire 1 _ A1 $end
$var wire 1 > A2 $end
$var wire 1 ^ B1 $end
$var wire 1 I$ VGND $end
$var wire 1 J$ VNB $end
$var wire 1 K$ VPB $end
$var wire 1 L$ VPWR $end
$var wire 1 ; Y $end
$scope module base $end
$var wire 1 _ A1 $end
$var wire 1 > A2 $end
$var wire 1 ^ B1 $end
$var wire 1 ; Y $end
$var wire 1 M$ and0_out $end
$var wire 1 N$ nor0_out_Y $end
$upscope $end
$upscope $end
$scope module _193_ $end
$var wire 1 _ A1 $end
$var wire 1 ^ A2 $end
$var wire 1 > A3 $end
$var wire 1 ; B1 $end
$var wire 1 B C1 $end
$var wire 1 O$ VGND $end
$var wire 1 P$ VNB $end
$var wire 1 Q$ VPB $end
$var wire 1 R$ VPWR $end
$var wire 1 v Y $end
$scope module base $end
$var wire 1 _ A1 $end
$var wire 1 ^ A2 $end
$var wire 1 > A3 $end
$var wire 1 ; B1 $end
$var wire 1 B C1 $end
$var wire 1 v Y $end
$var wire 1 S$ and0_out $end
$var wire 1 T$ nor0_out_Y $end
$upscope $end
$upscope $end
$scope module _194_ $end
$var wire 1 Z A $end
$var wire 1 [ B $end
$var wire 1 U$ VGND $end
$var wire 1 V$ VNB $end
$var wire 1 W$ VPB $end
$var wire 1 X$ VPWR $end
$var wire 1 e X $end
$scope module base $end
$var wire 1 Z A $end
$var wire 1 [ B $end
$var wire 1 e X $end
$var wire 1 Y$ xor0_out_X $end
$upscope $end
$upscope $end
$scope module _195_ $end
$var wire 1 Z A $end
$var wire 1 [ B $end
$var wire 1 Z$ VGND $end
$var wire 1 [$ VNB $end
$var wire 1 \$ VPB $end
$var wire 1 ]$ VPWR $end
$var wire 1 : Y $end
$scope module base $end
$var wire 1 Z A $end
$var wire 1 [ B $end
$var wire 1 : Y $end
$var wire 1 ^$ nand0_out_Y $end
$upscope $end
$upscope $end
$scope module _196_ $end
$var wire 1 Y A $end
$var wire 1 : B $end
$var wire 1 _$ VGND $end
$var wire 1 `$ VNB $end
$var wire 1 a$ VPB $end
$var wire 1 b$ VPWR $end
$var wire 1 d Y $end
$scope module base $end
$var wire 1 Y A $end
$var wire 1 : B $end
$var wire 1 d Y $end
$var wire 1 c$ xnor0_out_Y $end
$upscope $end
$upscope $end
$scope module _197_ $end
$var wire 1 ] A $end
$var wire 1 \ B $end
$var wire 1 d$ VGND $end
$var wire 1 e$ VNB $end
$var wire 1 f$ VPB $end
$var wire 1 g$ VPWR $end
$var wire 1 g X $end
$scope module base $end
$var wire 1 ] A $end
$var wire 1 \ B $end
$var wire 1 g X $end
$var wire 1 h$ xor0_out_X $end
$upscope $end
$upscope $end
$scope module _198_ $end
$var wire 1 X A $end
$var wire 1 W B $end
$var wire 1 i$ VGND $end
$var wire 1 j$ VNB $end
$var wire 1 k$ VPB $end
$var wire 1 l$ VPWR $end
$var wire 1 k X $end
$scope module base $end
$var wire 1 X A $end
$var wire 1 W B $end
$var wire 1 k X $end
$var wire 1 m$ xor0_out_X $end
$upscope $end
$upscope $end
$scope module _199_ $end
$var wire 1 V A $end
$var wire 1 N B $end
$var wire 1 n$ VGND $end
$var wire 1 o$ VNB $end
$var wire 1 p$ VPB $end
$var wire 1 q$ VPWR $end
$var wire 1 j Y $end
$scope module base $end
$var wire 1 V A $end
$var wire 1 N B $end
$var wire 1 j Y $end
$var wire 1 r$ xnor0_out_Y $end
$upscope $end
$upscope $end
$scope module _200_ $end
$var wire 1 X A $end
$var wire 1 W B $end
$var wire 1 V C $end
$var wire 1 s$ VGND $end
$var wire 1 t$ VNB $end
$var wire 1 u$ VPB $end
$var wire 1 v$ VPWR $end
$var wire 1 9 Y $end
$scope module base $end
$var wire 1 X A $end
$var wire 1 W B $end
$var wire 1 V C $end
$var wire 1 9 Y $end
$var wire 1 w$ nand0_out_Y $end
$upscope $end
$upscope $end
$scope module _201_ $end
$var wire 1 U A $end
$var wire 1 9 B $end
$var wire 1 x$ VGND $end
$var wire 1 y$ VNB $end
$var wire 1 z$ VPB $end
$var wire 1 {$ VPWR $end
$var wire 1 i Y $end
$scope module base $end
$var wire 1 U A $end
$var wire 1 9 B $end
$var wire 1 i Y $end
$var wire 1 |$ xnor0_out_Y $end
$upscope $end
$upscope $end
$upscope $end
$upscope $end
$enddefinitions $end
#0
$dumpvars
0|$
1{$
1z$
0y$
0x$
1w$
1v$
1u$
0t$
0s$
0r$
1q$
1p$
0o$
0n$
0m$
1l$
1k$
0j$
0i$
0h$
1g$
1f$
0e$
0d$
0c$
1b$
1a$
0`$
0_$
1^$
1]$
1\$
0[$
0Z$
0Y$
1X$
1W$
0V$
0U$
0T$
0S$
1R$
1Q$
0P$
0O$
1N$
0M$
1L$
1K$
0J$
0I$
0H$
0G$
1F$
1E$
0D$
0C$
0B$
1A$
1@$
1?$
0>$
0=$
0<$
1;$
1:$
09$
08$
17$
16$
15$
04$
03$
02$
11$
10$
0/$
0.$
0-$
1,$
1+$
0*$
0)$
1($
0'$
1&$
1%$
0$$
0#$
0"$
1!$
1~#
0}#
0|#
0{#
1z#
1y#
0x#
0w#
1v#
1u#
1t#
0s#
0r#
0q#
1p#
1o#
0n#
0m#
1l#
1k#
1j#
0i#
0h#
1g#
1f#
1e#
0d#
0c#
0b#
1a#
1`#
0_#
0^#
0]#
1\#
1[#
1Z#
0Y#
0X#
1W#
1V#
1U#
0T#
0S#
0R#
1Q#
1P#
0O#
0N#
0M#
1L#
1K#
0J#
0I#
0H#
1G#
1F#
0E#
0D#
0C#
0B#
1A#
1@#
0?#
0>#
1=#
1<#
1;#
0:#
09#
08#
07#
16#
15#
04#
03#
12#
11#
10#
1/#
0.#
0-#
0,#
1+#
1*#
0)#
0(#
1'#
1&#
1%#
1$#
0##
0"#
0!#
0~"
1}"
1|"
0{"
0z"
1y"
1x"
1w"
0v"
0u"
0t"
0s"
1r"
1q"
0p"
0o"
1n"
0m"
1l"
1k"
0j"
0i"
1h"
1g"
1f"
0e"
0d"
1c"
0b"
1a"
1`"
0_"
0^"
1]"
1\"
1["
0Z"
0Y"
1X"
0W"
1V"
1U"
0T"
0S"
1R"
1Q"
1P"
0O"
0N"
1M"
1L"
1K"
0J"
0I"
1H"
0G"
1F"
1E"
0D"
0C"
1B"
0A"
1@"
1?"
0>"
0="
1<"
0;"
1:"
19"
08"
07"
x6"
15"
14"
03"
02"
11"
10"
1/"
0."
0-"
1,"
1+"
1*"
0)"
0("
1'"
1&"
1%"
0$"
0#"
b0 ""
b0 !"
b0 ~
b0 }
b1 |
1{
0z
0y
0x
0w
0v
0u
0t
0s
1r
0q
0p
1o
1n
xm
1l
0k
0j
0i
1h
0g
1f
0e
0d
0c
0b
0a
0`
0_
0^
0]
0\
0[
0Z
0Y
0X
0W
0V
0U
0T
0S
1R
0Q
1P
1O
1N
0M
1L
0K
1J
0I
1H
0G
1F
1E
0D
1C
0B
1A
0@
1?
0>
1=
1<
1;
1:
19
08
07
b1 6
b1 5
b1 4
b1 3
b1 2
b1 1
b0 0
0/
x.
x-
1,
1+
0*
0)
1(
0'
0&
0%
b0 $
0#
0"
x!
$end
#15000000
1)
1q
b0 |
0{
1B
1C#
0l#
1q#
0+
0o
0,
0n
0O
1*
1p
1D
0C
0B"
0M"
0c"
1t"
1b#
0g#
1/
1#
#40000000
1-
1m
16"
0.
0!
1"
#80000000
0"
#95000000
0)
0q
b1 |
1{
0B
0C#
1l#
0q#
1+
1o
1,
1n
1O
0*
0p
0D
1C
1B"
1M"
1c"
0t"
0b#
1g#
0/
0#
#120000000
1z
1{#
1Q
b10 |
0{
0A
1W"
0l#
0v#
1c
b1 }
1"
#160000000
0"
#200000000
0Q
b11 |
1{
0W"
1l#
0X"
0c
1b
b10 }
1"
#240000000
0"
#280000000
1y
0z
1-$
0{#
0?
b100 |
0{
1A
0($
0l#
1v#
1'$
1c
b11 }
1"
#320000000
0"
#360000000
b101 |
1{
0R
1l#
1X"
0'$
0R"
0c
0b
1a
b100 }
1"
#400000000
0"
#440000000
1z
1{#
1Q
b110 |
0{
0A
1W"
0l#
0v#
1c
b101 }
1"
#480000000
0"
#520000000
0Q
b111 |
1{
0W"
1l#
0X"
0c
1b
b110 }
1"
#560000000
0"
#600000000
1x
1<$
0z
0y
0=
0{#
0-$
07$
b1000 |
0{
1A
1@
0l#
1v#
1"$
1'$
1c
b111 }
1"
#640000000
0"
#680000000
0w
0H$
1<
0y
1x
1A$
1?
0-$
1<$
0B$
b1001 |
1{
1($
1R
0@
0>
1l#
0'$
1R"
0"$
02$
0c
0b
0a
1`
b1000 }
1"
#720000000
0"
#760000000
1z
1{#
b1010 |
0{
0A
0l#
0v#
1c
b1001 }
1"
#800000000
0"
#840000000
b1011 |
1{
1l#
0c
1b
b1010 }
1"
#880000000
0"
#920000000
1y
0z
1-$
0{#
0?
b1100 |
0{
1A
0($
0l#
1v#
1'$
1c
b1011 }
1"
#960000000
0"
